            "O Oysters, come and walk with us!"
              The Walrus did beseech.
            "A pleasant walk, a pleasant talk,
              Along the briny beach:
            We cannot do with more than four,
              To give a hand to each."
