            "U rkum km xghup," nyh Curgsi iuqp,
              "Qi cyun ch oyqhmrf jhhp:
            Zhzzhg ujp tqjhlug xhiqphi
              Ugh thgf lkkp qjphhp--
            Jkc qm fks'gh ghupf Kfinhgi phug,
              Ch ouj xhlqj nk mhhp."
