            "Dn eiiae s emsai," nmi Pshjte esdl,
              "Nc rhsg nmia etbm s njdby,
            Sonij pi'zi qjctvmn nmia ctn ec osj,
              Swl asli nmia njcn ec utdby!"
            Nmi Bsjriwnij esdl wcnmdwv qtn
              "Nmi qtnnij'e erjisl ncc nmdby!"
